PublishedPapers/TD3/Data/DDPG_Rotor_Current.csv

Format,1.0B,
Memory Length,10000,Memory Length,10000,Memory Length,10000,
IntpDistance,0,IntpDistance,0,IntpDistance,0,
Trigger Address,0,Trigger Address,0,Trigger Address,0,
Trigger Level,5.800E+00,Trigger Level,5.800E+00,Trigger Level,5.800E+00,
Source,CH1,Source,CH2,Source,CH3,
Vertical Units,V,Vertical Units,V,Vertical Units,V,
Vertical Units Div,0,Vertical Units Div,0,Vertical Units Div,0,
Vertical Units Extend Div,16,Vertical Units Extend Div,16,Vertical Units Extend Div,16,
Label,,Label,,Label,,
Probe Type,0,Probe Type,0,Probe Type,0,
Probe Ratio,1.000e+00,Probe Ratio,1.000e+00,Probe Ratio,1.000e+00,
Vertical Scale,5.000e+00,Vertical Scale,5.000e+00,Vertical Scale,5.000e+00,
Vertical Position,0.000e+00,Vertical Position,0.000e+00,Vertical Position,0.000e+00,
Horizontal Units,S,Horizontal Units,S,Horizontal Units,S,
Horizontal Scale,1.000E+00,Horizontal Scale,1.000E+00,Horizontal Scale,1.000E+00,
Horizontal Position,0.000E+00,Horizontal Position,0.000E+00,Horizontal Position,0.000E+00,
Horizontal Mode,Roll Mode,Horizontal Mode,Roll Mode,Horizontal Mode,Roll Mode,
Display Last Dot Address,10000,Display Last Dot Address,10000,Display Last Dot Address,10000,
Waveform Last Dot Address,0,Waveform Last Dot Address,0,Waveform Last Dot Address,0,
SincET Mode,Real Time,SincET Mode,Real Time,SincET Mode,Real Time,
Sampling Period,1.000e-03,Sampling Period,1.000e-03,Sampling Period,1.000e-03,
Horizontal Old Scale,1.000E+00,Horizontal Old Scale,1.000E+00,Horizontal Old Scale,1.000E+00,
Mode,Fast,Mode,Fast,Mode,Fast,
Firmware,V1.28,,Firmware,V1.28,,Firmware,V1.28,,
0, ,0, ,1, ,
0, ,0, ,1, ,
0, ,0, ,1, ,
0, ,0, ,1, ,
0, ,0, ,1, ,
0, ,0, ,1, ,
0, ,0, ,1, ,
0, ,0, ,1, ,
0, ,0, ,1, ,
0, ,0, ,1, ,
0, ,0, ,1, ,
0, ,0, ,1, ,
0, ,0, ,1, ,
0, ,0, ,1, ,
0, ,0, ,1, ,
0, ,0, ,1, ,
0, ,0, ,1, ,
0, ,0, ,1, ,
0, ,0, ,1, ,
0, ,0, ,1, ,
0, ,0, ,1, ,
0, ,0, ,1, ,
0, ,0, ,1, ,
0, ,0, ,1, ,
0, ,0, ,1, ,
0, ,0, ,1, ,
0, ,0, ,1, ,
0, ,0, ,1, ,
0, ,0, ,1, ,
0, ,0, ,1, ,
0, ,0, ,1, ,
0, ,0, ,1, ,
0, ,0, ,1, ,
0, ,0, ,1, ,
0, ,0, ,1, ,
0, ,0, ,1, ,
0, ,0, ,1, ,
0, ,0, ,1, ,
0, ,0, ,1, ,
0, ,0, ,1, ,
0, ,0, ,1, ,
0, ,0, ,1, ,
0, ,0, ,1, ,
0, ,0, ,1, ,
0, ,0, ,1, ,
0, ,0, ,1, ,
0, ,0, ,1, ,
0, ,0, ,1, ,
0, ,0, ,1, ,
0, ,0, ,1, ,
0, ,0, ,1, ,
0, ,0, ,1, ,
0, ,0, ,1, ,
0, ,0, ,1, ,
0, ,0, ,1, ,
0, ,0, ,1, ,
0, ,0, ,1, ,
0, ,0, ,1, ,
0, ,0, ,1, ,
0, ,0, ,1, ,
0, ,0, ,1, ,
0, ,0, ,1, ,
0, ,0, ,1, ,
0, ,0, ,1, ,
0, ,0, ,1, ,
0, ,0, ,1, ,
0, ,0, ,1, ,
0, ,0, ,1, ,
0, ,0, ,1, ,
0, ,0, ,1, ,
0, ,0, ,1, ,
0, ,0, ,1, ,
0, ,0, ,1, ,
0, ,0, ,1, ,
0, ,0, ,1, ,
0, ,0, ,1, ,
0, ,0, ,1, ,
0, ,0, ,1, ,
0, ,0, ,1, ,
0, ,0, ,1, ,
0, ,0, ,1, ,
0, ,0, ,1, ,
0, ,0, ,1, ,
0, ,0, ,1, ,
0, ,0, ,1, ,
0, ,0, ,1, ,
0, ,0, ,1, ,
0, ,0, ,1, ,
0, ,0, ,1, ,
0, ,0, ,1, ,
0, ,0, ,1, ,
0, ,0, ,1, ,
0, ,0, ,1, ,
0, ,0, ,1, ,
0, ,0, ,1, ,
0, ,0, ,1, ,
0, ,0, ,1, ,
0, ,0, ,1, ,
0, ,0, ,1, ,
0, ,0, ,1, ,
0, ,0, ,1, ,
0, ,0, ,1, ,
0, ,0, ,1, ,
0, ,0, ,1, ,
0, ,0, ,1, ,
0, ,0, ,1, ,
0, ,0, ,1, ,
0, ,0, ,1, ,
0, ,0, ,1, ,
0, ,0, ,1, ,
0, ,0, ,1, ,
0, ,0, ,1, ,
0, ,0, ,1, ,
0, ,0, ,1, ,
0, ,0, ,1, ,
0, ,0, ,1, ,
0, ,0, ,1, ,
0, ,0, ,1, ,
0, ,0, ,1, ,
0, ,0, ,1, ,
0, ,0, ,1, ,
0, ,0, ,1, ,
0, ,0, ,1, ,
0, ,0, ,1, ,
0, ,0, ,1, ,
0, ,0, ,1, ,
0, ,0, ,1, ,
0, ,0, ,1, ,
0, ,0, ,1, ,
0, ,0, ,1, ,
0, ,0, ,1, ,
0, ,0, ,1, ,
0, ,0, ,1, ,
0, ,0, ,1, ,
0, ,0, ,1, ,
0, ,0, ,1, ,
0, ,0, ,1, ,
0, ,0, ,1, ,
0, ,0, ,1, ,
0, ,0, ,1, ,
0, ,0, ,1, ,
0, ,0, ,1, ,
0, ,0, ,1, ,
0, ,0, ,1, ,
0, ,0, ,1, ,
0, ,0, ,1, ,
0, ,0, ,1, ,
0, ,0, ,1, ,
0, ,0, ,1, ,
0, ,0, ,1, ,
0, ,0, ,1, ,
0, ,0, ,1, ,
0, ,0, ,1, ,
0, ,0, ,1, ,
0, ,0, ,1, ,
0, ,0, ,1, ,
0, ,0, ,1, ,
0, ,0, ,1, ,
0, ,0, ,1, ,
0, ,0, ,1, ,
0, ,0, ,1, ,
0, ,0, ,1, ,
0, ,0, ,1, ,
0, ,0, ,1, ,
0, ,0, ,1, ,
0, ,0, ,1, ,
0, ,0, ,1, ,
0, ,0, ,1, ,
0, ,0, ,1, ,
0, ,0, ,1, ,
0, ,0, ,1, ,
0, ,0, ,1, ,
0, ,0, ,1, ,
0, ,0, ,1, ,
0, ,0, ,1, ,
0, ,0, ,1, ,
0, ,0, ,1, ,
0, ,0, ,1, ,
0, ,0, ,1, ,
0, ,0, ,1, ,
0, ,0, ,1, ,
0, ,0, ,1, ,
0, ,0, ,1, ,
0, ,0, ,1, ,
0, ,0, ,1, ,
0, ,0, ,1, ,
0, ,0, ,1, ,
0, ,0, ,1, ,
0, ,0, ,1, ,
0, ,0, ,1, ,
0, ,0, ,1, ,
0, ,0, ,1, ,
0, ,0, ,1, ,
0, ,0, ,1, ,
0, ,0, ,1, ,
0, ,0, ,1, ,
0, ,0, ,1, ,
0, ,0, ,1, ,
0, ,0, ,1, ,
0, ,0, ,1, ,
0, ,0, ,1, ,
0, ,0, ,1, ,
0, ,0, ,1, ,
0, ,0, ,1, ,
0, ,0, ,1, ,
0, ,0, ,1, ,
0, ,0, ,1, ,
0, ,0, ,1, ,
0, ,0, ,1, ,
0, ,0, ,1, ,
0, ,0, ,1, ,
0, ,0, ,1, ,
0, ,0, ,1, ,
0, ,0, ,1, ,
0, ,0, ,1, ,
0, ,0, ,1, ,
0, ,0, ,1, ,
0, ,0, ,1, ,
0, ,0, ,1, ,
0, ,0, ,1, ,
0, ,0, ,1, ,
0, ,0, ,1, ,
0, ,0, ,1, ,
0, ,0, ,1, ,
0, ,0, ,1, ,
0, ,0, ,1, ,
0, ,0, ,1, ,
0, ,0, ,1, ,
0, ,0, ,1, ,
0, ,0, ,1, ,
0, ,0, ,1, ,
0, ,0, ,1, ,
0, ,0, ,1, ,
0, ,0, ,1, ,
0, ,0, ,1, ,
0, ,0, ,1, ,
0, ,0, ,1, ,
0, ,0, ,1, ,
0, ,0, ,1, ,
0, ,0, ,1, ,
0, ,0, ,1, ,
0, ,0, ,1, ,
0, ,0, ,1, ,
0, ,0, ,1, ,
0, ,0, ,1, ,
0, ,0, ,1, ,
0, ,0, ,1, ,
0, ,0, ,1, ,
0, ,0, ,1, ,
0, ,0, ,1, ,
0, ,0, ,1, ,
0, ,0, ,1, ,
0, ,0, ,1, ,
0, ,0, ,1, ,
0, ,0, ,1, ,
0, ,0, ,1, ,
0, ,0, ,1, ,
0, ,0, ,1, ,
0, ,0, ,1, ,
0, ,0, ,1, ,
0, ,0, ,1, ,
0, ,0, ,1, ,
0, ,0, ,1, ,
0, ,0, ,1, ,
0, ,0, ,1, ,
0, ,0, ,1, ,
0, ,0, ,1, ,
0, ,0, ,1, ,
0, ,0, ,1, ,
0, ,0, ,1, ,
0, ,0, ,1, ,
0, ,0, ,1, ,
0, ,0, ,1, ,
0, ,0, ,1, ,
0, ,0, ,1, ,
0, ,0, ,1, ,
0, ,0, ,1, ,
0, ,0, ,1, ,
0, ,0, ,1, ,
0, ,0, ,1, ,
0, ,0, ,1, ,
0, ,0, ,1, ,
0, ,0, ,1, ,
0, ,0, ,1, ,
0, ,0, ,1, ,
0, ,0, ,1, ,
0, ,0, ,1, ,
0, ,0, ,1, ,
0, ,0, ,1, ,
0, ,0, ,1, ,
0, ,0, ,1, ,
0, ,0, ,1, ,
0, ,0, ,1, ,
0, ,0, ,1, ,
0, ,0, ,1, ,
0, ,0, ,1, ,
0, ,0, ,1, ,
0, ,0, ,1, ,
0, ,0, ,1, ,
0, ,0, ,1, ,
0, ,0, ,1, ,
0, ,0, ,1, ,
0, ,0, ,1, ,
0, ,0, ,1, ,
0, ,0, ,1, ,
0, ,0, ,1, ,
0, ,0, ,1, ,
0, ,0, ,1, ,
0, ,0, ,1, ,
0, ,0, ,1, ,
0, ,0, ,1, ,
0, ,0, ,1, ,
0, ,0, ,1, ,
0, ,0, ,1, ,
0, ,0, ,1, ,
0, ,0, ,1, ,
0, ,0, ,1, ,
0, ,0, ,1, ,
0, ,0, ,1, ,
0, ,0, ,1, ,
0, ,0, ,1, ,
0, ,0, ,1, ,
0, ,0, ,1, ,
0, ,0, ,1, ,
0, ,0, ,1, ,
0, ,0, ,1, ,
0, ,0, ,1, ,
0, ,0, ,1, ,
0, ,0, ,1, ,
0, ,0, ,1, ,
0, ,0, ,1, ,
0, ,0, ,1, ,
0, ,0, ,1, ,
0, ,0, ,1, ,
0, ,0, ,1, ,
0, ,0, ,1, ,
0, ,0, ,1, ,
0, ,0, ,1, ,
0, ,0, ,1, ,
0, ,0, ,1, ,
0, ,0, ,1, ,
0, ,0, ,1, ,
0, ,0, ,1, ,
0, ,0, ,1, ,
0, ,0, ,1, ,
0, ,0, ,1, ,
0, ,0, ,1, ,
0, ,0, ,1, ,
0, ,0, ,1, ,
0, ,0, ,1, ,
0, ,0, ,1, ,
0, ,0, ,1, ,
0, ,0, ,1, ,
0, ,0, ,1, ,
0, ,0, ,1, ,
0, ,0, ,1, ,
0, ,0, ,1, ,
0, ,0, ,1, ,
0, ,0, ,1, ,
0, ,0, ,1, ,
0, ,0, ,1, ,
0, ,0, ,1, ,
0, ,0, ,1, ,
0, ,0, ,1, ,
0, ,0, ,1, ,
0, ,0, ,1, ,
0, ,0, ,1, ,
0, ,0, ,1, ,
0, ,0, ,1, ,
0, ,0, ,1, ,
0, ,0, ,1, ,
0, ,0, ,1, ,
0, ,0, ,1, ,
0, ,0, ,1, ,
0, ,0, ,1, ,
0, ,0, ,1, ,
0, ,0, ,1, ,
0, ,0, ,1, ,
0, ,0, ,1, ,
0, ,0, ,1, ,
0, ,0, ,1, ,
0, ,0, ,1, ,
0, ,0, ,1, ,
0, ,0, ,1, ,
0, ,0, ,1, ,
0, ,0, ,1, ,
0, ,0, ,1, ,
0, ,0, ,1, ,
0, ,0, ,1, ,
0, ,0, ,1, ,
0, ,0, ,1, ,
0, ,0, ,1, ,
0, ,0, ,1, ,
0, ,0, ,1, ,
0, ,0, ,1, ,
0, ,0, ,1, ,
0, ,0, ,1, ,
0, ,0, ,1, ,
0, ,0, ,1, ,
0, ,0, ,1, ,
0, ,0, ,1, ,
0, ,0, ,1, ,
0, ,0, ,1, ,
0, ,0, ,1, ,
0, ,0, ,1, ,
0, ,0, ,1, ,
0, ,0, ,1, ,
0, ,0, ,1, ,
0, ,0, ,1, ,
0, ,0, ,1, ,
0, ,0, ,1, ,
0, ,0, ,1, ,
0, ,0, ,1, ,
0, ,0, ,1, ,
0, ,0, ,1, ,
0, ,0, ,1, ,
0, ,0, ,1, ,
0, ,0, ,1, ,
0, ,0, ,1, ,
0, ,0, ,1, ,
0, ,0, ,1, ,
0, ,0, ,1, ,
0, ,0, ,1, ,
0, ,0, ,1, ,
0, ,0, ,1, ,
0, ,0, ,1, ,
0, ,0, ,1, ,
0, ,0, ,1, ,
0, ,0, ,1, ,
0, ,0, ,1, ,
0, ,0, ,1, ,
0, ,0, ,1, ,
0, ,0, ,1, ,
0, ,0, ,1, ,
0, ,0, ,1, ,
0, ,0, ,1, ,
0, ,0, ,1, ,
0, ,0, ,1, ,
0, ,0, ,1, ,
0, ,0, ,1, ,
0, ,0, ,1, ,
0, ,0, ,1, ,
0, ,0, ,0, ,
0, ,0, ,1, ,
0, ,0, ,0, ,
0, ,0, ,0, ,
0, ,0, ,0, ,
0, ,0, ,1, ,
0, ,0, ,0, ,
0, ,0, ,0, ,
0, ,0, ,0, ,
0, ,0, ,0, ,
0, ,0, ,0, ,
0, ,0, ,1, ,
0, ,0, ,1, ,
0, ,0, ,1, ,
0, ,0, ,0, ,
0, ,0, ,1, ,
0, ,0, ,0, ,
0, ,0, ,0, ,
0, ,0, ,0, ,
0, ,0, ,1, ,
0, ,0, ,1, ,
0, ,0, ,1, ,
0, ,0, ,0, ,
0, ,0, ,0, ,
0, ,0, ,1, ,
0, ,0, ,0, ,
0, ,0, ,0, ,
0, ,0, ,1, ,
0, ,0, ,1, ,
0, ,0, ,1, ,
0, ,0, ,1, ,
0, ,0, ,1, ,
0, ,0, ,1, ,
0, ,0, ,1, ,
0, ,0, ,1, ,
0, ,0, ,1, ,
0, ,0, ,1, ,
0, ,0, ,1, ,
0, ,0, ,1, ,
0, ,0, ,1, ,
0, ,3, ,-1, ,
5, ,24, ,-28, ,
14, ,39, ,-53, ,
29, ,45, ,-73, ,
42, ,40, ,-81, ,
54, ,24, ,-76, ,
60, ,-3, ,-55, ,
62, ,-35, ,-25, ,
47, ,-39, ,-6, ,
29, ,-33, ,5, ,
5, ,-26, ,23, ,
-5, ,-10, ,16, ,
2, ,-8, ,6, ,
6, ,-14, ,9, ,
6, ,-15, ,10, ,
6, ,-14, ,9, ,
7, ,-13, ,8, ,
7, ,-13, ,8, ,
6, ,-11, ,6, ,
5, ,-9, ,5, ,
4, ,-5, ,1, ,
7, ,-3, ,-3, ,
7, ,3, ,-9, ,
12, ,4, ,-15, ,
24, ,0, ,-23, ,
37, ,-9, ,-28, ,
43, ,-14, ,-28, ,
42, ,-9, ,-32, ,
40, ,-10, ,-29, ,
35, ,-15, ,-19, ,
25, ,-21, ,-4, ,
14, ,-26, ,14, ,
7, ,-23, ,16, ,
-2, ,-19, ,23, ,
0, ,-20, ,21, ,
-4, ,-19, ,23, ,
-4, ,-26, ,32, ,
-10, ,-29, ,39, ,
-19, ,-23, ,42, ,
-29, ,-9, ,39, ,
-38, ,9, ,30, ,
-46, ,33, ,14, ,
-47, ,44, ,4, ,
-46, ,48, ,-3, ,
-37, ,48, ,-9, ,
-24, ,43, ,-18, ,
-5, ,33, ,-26, ,
17, ,18, ,-33, ,
30, ,3, ,-32, ,
37, ,-13, ,-23, ,
40, ,-23, ,-15, ,
40, ,-24, ,-14, ,
41, ,-24, ,-15, ,
37, ,-26, ,-9, ,
29, ,-30, ,3, ,
16, ,-32, ,16, ,
10, ,-33, ,24, ,
2, ,-33, ,32, ,
-8, ,-29, ,38, ,
-22, ,-20, ,42, ,
-35, ,-5, ,42, ,
-48, ,11, ,38, ,
-52, ,18, ,34, ,
-50, ,26, ,25, ,
-44, ,34, ,11, ,
-34, ,40, ,-5, ,
-19, ,45, ,-25, ,
-6, ,44, ,-37, ,
4, ,38, ,-40, ,
16, ,28, ,-43, ,
31, ,14, ,-43, ,
37, ,3, ,-38, ,
36, ,-1, ,-34, ,
35, ,-8, ,-26, ,
31, ,-16, ,-14, ,
26, ,-24, ,-1, ,
23, ,-28, ,5, ,
16, ,-30, ,16, ,
5, ,-32, ,28, ,
-10, ,-29, ,40, ,
-24, ,-25, ,49, ,
-29, ,-23, ,53, ,
-34, ,-19, ,54, ,
-40, ,-10, ,50, ,
-42, ,4, ,39, ,
-44, ,21, ,24, ,
-44, ,40, ,5, ,
-36, ,45, ,-9, ,
-29, ,39, ,-10, ,
-18, ,32, ,-13, ,
-4, ,20, ,-16, ,
11, ,9, ,-19, ,
14, ,3, ,-15, ,
14, ,3, ,-16, ,
17, ,0, ,-16, ,
23, ,-4, ,-19, ,
28, ,-10, ,-16, ,
29, ,-18, ,-9, ,
25, ,-26, ,1, ,
17, ,-33, ,16, ,
7, ,-35, ,29, ,
4, ,-34, ,32, ,
4, ,-33, ,30, ,
2, ,-28, ,26, ,
-1, ,-18, ,20, ,
-4, ,-6, ,11, ,
-7, ,8, ,0, ,
-10, ,24, ,-13, ,
-10, ,28, ,-16, ,
-11, ,26, ,-15, ,
-14, ,26, ,-11, ,
-13, ,25, ,-11, ,
-7, ,19, ,-11, ,
0, ,11, ,-10, ,
2, ,6, ,-8, ,
4, ,6, ,-9, ,
6, ,3, ,-8, ,
7, ,-4, ,-3, ,
7, ,-11, ,5, ,
6, ,-16, ,11, ,
6, ,-18, ,13, ,
2, ,-15, ,14, ,
-6, ,-10, ,18, ,
-17, ,-3, ,20, ,
-28, ,8, ,21, ,
-28, ,14, ,15, ,
-24, ,15, ,10, ,
-19, ,18, ,3, ,
-11, ,16, ,-5, ,
-8, ,10, ,-1, ,
-12, ,8, ,5, ,
-14, ,9, ,6, ,
-13, ,9, ,6, ,
-13, ,9, ,6, ,
-11, ,8, ,5, ,
-7, ,6, ,3, ,
-1, ,1, ,1, ,
5, ,-4, ,1, ,
7, ,-8, ,1, ,
8, ,-11, ,4, ,
12, ,-10, ,-1, ,
11, ,-9, ,-1, ,
5, ,-6, ,1, ,
-5, ,-3, ,9, ,
-17, ,1, ,16, ,
-26, ,10, ,18, ,
-24, ,11, ,14, ,
-17, ,6, ,11, ,
-10, ,3, ,8, ,
-10, ,1, ,9, ,
-13, ,3, ,13, ,
-13, ,1, ,13, ,
-12, ,1, ,13, ,
-12, ,0, ,13, ,
-11, ,1, ,11, ,
-10, ,1, ,9, ,
-5, ,-3, ,8, ,
0, ,-5, ,6, ,
1, ,-4, ,4, ,
2, ,-4, ,3, ,
0, ,-5, ,6, ,
-5, ,-8, ,13, ,
-12, ,-10, ,23, ,
-16, ,-8, ,24, ,
-18, ,-3, ,21, ,
-13, ,-1, ,15, ,
-10, ,0, ,10, ,
-10, ,-4, ,14, ,
-10, ,-5, ,16, ,
-8, ,-6, ,16, ,
-8, ,-6, ,15, ,
-8, ,-6, ,15, ,
-7, ,-8, ,15, ,
-6, ,-8, ,14, ,
-5, ,-6, ,13, ,
-5, ,-5, ,10, ,
-2, ,-5, ,9, ,
0, ,-6, ,8, ,
5, ,-11, ,8, ,
5, ,-11, ,8, ,
5, ,-14, ,10, ,
4, ,-19, ,16, ,
-2, ,-20, ,23, ,
-6, ,-16, ,23, ,
-10, ,-9, ,19, ,
-7, ,-5, ,13, ,
-2, ,-9, ,13, ,
-1, ,-11, ,14, ,
-2, ,-11, ,15, ,
-1, ,-11, ,14, ,
-1, ,-11, ,14, ,
0, ,-13, ,13, ,
0, ,-13, ,13, ,
1, ,-13, ,13, ,
2, ,-11, ,11, ,
2, ,-10, ,9, ,
2, ,-8, ,6, ,
2, ,-6, ,5, ,
4, ,-9, ,6, ,
6, ,-13, ,9, ,
8, ,-21, ,14, ,
7, ,-23, ,16, ,
4, ,-20, ,19, ,
1, ,-15, ,15, ,
-2, ,-9, ,11, ,
1, ,-11, ,11, ,
5, ,-15, ,11, ,
5, ,-15, ,11, ,
5, ,-14, ,10, ,
5, ,-14, ,10, ,
5, ,-14, ,10, ,
6, ,-14, ,9, ,
6, ,-14, ,9, ,
6, ,-13, ,8, ,
6, ,-13, ,8, ,
7, ,-11, ,6, ,
11, ,-11, ,3, ,
11, ,-10, ,0, ,
8, ,-9, ,3, ,
8, ,-11, ,5, ,
10, ,-18, ,10, ,
11, ,-25, ,16, ,
10, ,-20, ,11, ,
8, ,-15, ,8, ,
10, ,-14, ,6, ,
10, ,-15, ,6, ,
10, ,-15, ,6, ,
10, ,-15, ,6, ,
10, ,-14, ,5, ,
11, ,-14, ,4, ,
11, ,-14, ,4, ,
11, ,-13, ,4, ,
12, ,-13, ,3, ,
11, ,-13, ,3, ,
10, ,-10, ,1, ,
10, ,-10, ,1, ,
10, ,-9, ,0, ,
13, ,-10, ,-3, ,
19, ,-14, ,-5, ,
20, ,-15, ,-4, ,
19, ,-19, ,1, ,
16, ,-19, ,4, ,
8, ,-14, ,6, ,
11, ,-13, ,4, ,
13, ,-13, ,0, ,
14, ,-13, ,0, ,
14, ,-13, ,0, ,
13, ,-11, ,0, ,
13, ,-11, ,-1, ,
14, ,-11, ,-1, ,
13, ,-11, ,-1, ,
13, ,-10, ,-3, ,
14, ,-10, ,-4, ,
14, ,-9, ,-4, ,
13, ,-8, ,-4, ,
12, ,-6, ,-5, ,
11, ,-6, ,-4, ,
12, ,-8, ,-4, ,
17, ,-10, ,-5, ,
24, ,-15, ,-6, ,
20, ,-15, ,-5, ,
16, ,-11, ,-4, ,
14, ,-9, ,-5, ,
16, ,-9, ,-5, ,
16, ,-9, ,-5, ,
16, ,-9, ,-5, ,
16, ,-9, ,-5, ,
14, ,-8, ,-6, ,
14, ,-6, ,-6, ,
14, ,-6, ,-6, ,
14, ,-6, ,-8, ,
14, ,-5, ,-8, ,
14, ,-5, ,-8, ,
14, ,-5, ,-8, ,
14, ,-4, ,-9, ,
14, ,-1, ,-11, ,
13, ,-1, ,-11, ,
14, ,-3, ,-10, ,
17, ,-6, ,-10, ,
23, ,-11, ,-10, ,
20, ,-9, ,-10, ,
16, ,-5, ,-10, ,
14, ,-4, ,-10, ,
14, ,-4, ,-10, ,
14, ,-4, ,-10, ,
16, ,-4, ,-10, ,
14, ,-3, ,-10, ,
14, ,-3, ,-10, ,
13, ,-1, ,-11, ,
13, ,-1, ,-11, ,
13, ,-1, ,-11, ,
13, ,0, ,-11, ,
13, ,0, ,-11, ,
12, ,1, ,-11, ,
11, ,1, ,-11, ,
12, ,1, ,-13, ,
14, ,4, ,-16, ,
16, ,4, ,-18, ,
17, ,0, ,-15, ,
17, ,-3, ,-13, ,
13, ,0, ,-13, ,
13, ,1, ,-14, ,
13, ,3, ,-14, ,
13, ,1, ,-14, ,
12, ,3, ,-13, ,
12, ,3, ,-14, ,
12, ,3, ,-13, ,
11, ,4, ,-14, ,
11, ,4, ,-14, ,
10, ,4, ,-13, ,
10, ,5, ,-14, ,
10, ,5, ,-14, ,
10, ,6, ,-14, ,
8, ,6, ,-14, ,
7, ,8, ,-14, ,
8, ,8, ,-14, ,
11, ,8, ,-16, ,
13, ,8, ,-19, ,
12, ,6, ,-18, ,
10, ,6, ,-15, ,
10, ,8, ,-15, ,
10, ,8, ,-15, ,
8, ,6, ,-14, ,
8, ,8, ,-15, ,
8, ,8, ,-15, ,
7, ,8, ,-15, ,
7, ,8, ,-14, ,
7, ,8, ,-14, ,
6, ,9, ,-14, ,
6, ,9, ,-14, ,
6, ,9, ,-14, ,
5, ,10, ,-14, ,
5, ,11, ,-14, ,
5, ,11, ,-14, ,
4, ,11, ,-15, ,
4, ,13, ,-15, ,
5, ,13, ,-16, ,
5, ,11, ,-16, ,
5, ,11, ,-15, ,
4, ,11, ,-15, ,
4, ,11, ,-14, ,
4, ,11, ,-15, ,
4, ,13, ,-15, ,
4, ,11, ,-14, ,
2, ,11, ,-14, ,
2, ,11, ,-14, ,
2, ,13, ,-13, ,
1, ,13, ,-13, ,
1, ,13, ,-13, ,
1, ,13, ,-13, ,
0, ,13, ,-13, ,
0, ,14, ,-11, ,
-1, ,14, ,-11, ,
-1, ,15, ,-13, ,
-1, ,15, ,-14, ,
-1, ,15, ,-14, ,
-1, ,15, ,-13, ,
-1, ,15, ,-13, ,
-1, ,15, ,-13, ,
-1, ,15, ,-13, ,
-1, ,15, ,-13, ,
-1, ,15, ,-11, ,
-1, ,15, ,-13, ,
-2, ,15, ,-11, ,
-2, ,14, ,-11, ,
-2, ,15, ,-11, ,
-2, ,14, ,-10, ,
-4, ,14, ,-10, ,
-4, ,14, ,-9, ,
-5, ,15, ,-9, ,
-5, ,15, ,-9, ,
-6, ,15, ,-9, ,
-6, ,15, ,-9, ,
-6, ,16, ,-9, ,
-6, ,16, ,-9, ,
-7, ,16, ,-9, ,
-6, ,16, ,-9, ,
-6, ,16, ,-9, ,
-6, ,16, ,-9, ,
-6, ,16, ,-9, ,
-6, ,16, ,-9, ,
-7, ,16, ,-9, ,
-7, ,15, ,-8, ,
-7, ,15, ,-8, ,
-7, ,15, ,-8, ,
-7, ,15, ,-6, ,
-8, ,15, ,-6, ,
-8, ,15, ,-6, ,
-8, ,15, ,-5, ,
-10, ,15, ,-5, ,
-10, ,15, ,-4, ,
-11, ,15, ,-4, ,
-11, ,16, ,-4, ,
-11, ,16, ,-4, ,
-11, ,16, ,-5, ,
-11, ,16, ,-5, ,
-11, ,16, ,-4, ,
-11, ,16, ,-4, ,
-11, ,16, ,-4, ,
-11, ,16, ,-4, ,
-11, ,15, ,-4, ,
-11, ,15, ,-4, ,
-11, ,15, ,-4, ,
-11, ,15, ,-3, ,
-12, ,15, ,-3, ,
-11, ,15, ,-3, ,
-12, ,14, ,-1, ,
-12, ,14, ,-1, ,
-12, ,14, ,0, ,
-13, ,14, ,0, ,
-13, ,14, ,0, ,
-13, ,14, ,0, ,
-14, ,14, ,1, ,
-14, ,15, ,1, ,
-14, ,14, ,1, ,
-14, ,15, ,0, ,
-14, ,15, ,1, ,
-14, ,14, ,1, ,
-13, ,14, ,1, ,
-14, ,14, ,1, ,
-14, ,14, ,1, ,
-14, ,13, ,1, ,
-14, ,13, ,3, ,
-14, ,13, ,3, ,
-14, ,13, ,3, ,
-14, ,13, ,3, ,
-14, ,11, ,4, ,
-14, ,11, ,4, ,
-14, ,11, ,4, ,
-14, ,11, ,5, ,
-16, ,11, ,5, ,
-16, ,11, ,6, ,
-16, ,11, ,6, ,
-17, ,11, ,6, ,
-17, ,11, ,6, ,
-17, ,11, ,6, ,
-16, ,11, ,5, ,
-16, ,11, ,6, ,
-16, ,11, ,6, ,
-16, ,10, ,6, ,
-16, ,10, ,6, ,
-16, ,10, ,6, ,
-16, ,9, ,8, ,
-16, ,9, ,8, ,
-16, ,9, ,8, ,
-16, ,9, ,8, ,
-16, ,9, ,8, ,
-14, ,8, ,8, ,
-16, ,8, ,9, ,
-16, ,8, ,9, ,
-16, ,8, ,10, ,
-17, ,8, ,10, ,
-17, ,8, ,10, ,
-17, ,8, ,10, ,
-17, ,8, ,10, ,
-17, ,8, ,10, ,
-17, ,8, ,10, ,
-17, ,8, ,10, ,
-16, ,6, ,10, ,
-17, ,6, ,10, ,
-16, ,6, ,10, ,
-16, ,6, ,11, ,
-16, ,5, ,11, ,
-14, ,5, ,11, ,
-14, ,5, ,11, ,
-14, ,5, ,11, ,
-14, ,4, ,13, ,
-14, ,4, ,13, ,
-14, ,4, ,13, ,
-14, ,3, ,13, ,
-14, ,3, ,14, ,
-16, ,3, ,14, ,
-16, ,3, ,14, ,
-16, ,3, ,14, ,
-16, ,3, ,14, ,
-16, ,3, ,14, ,
-16, ,3, ,14, ,
-14, ,3, ,14, ,
-14, ,3, ,14, ,
-14, ,1, ,14, ,
-14, ,1, ,14, ,
-14, ,1, ,14, ,
-13, ,1, ,14, ,
-13, ,0, ,14, ,
-13, ,0, ,14, ,
-13, ,0, ,14, ,
-13, ,0, ,15, ,
-13, ,-1, ,15, ,
-12, ,-1, ,15, ,
-12, ,-3, ,15, ,
-13, ,-3, ,16, ,
-13, ,-3, ,16, ,
-13, ,-3, ,16, ,
-13, ,-3, ,16, ,
-13, ,-3, ,16, ,
-13, ,-3, ,16, ,
-12, ,-3, ,16, ,
-12, ,-3, ,16, ,
-12, ,-3, ,16, ,
-12, ,-4, ,16, ,
-12, ,-3, ,16, ,
-11, ,-4, ,15, ,
-11, ,-4, ,15, ,
-11, ,-4, ,16, ,
-11, ,-4, ,15, ,
-10, ,-5, ,16, ,
-10, ,-5, ,16, ,
-10, ,-5, ,16, ,
-10, ,-6, ,16, ,
-10, ,-6, ,16, ,
-10, ,-6, ,18, ,
-10, ,-6, ,18, ,
-10, ,-8, ,18, ,
-10, ,-6, ,18, ,
-10, ,-6, ,18, ,
-10, ,-6, ,18, ,
-10, ,-6, ,18, ,
-8, ,-6, ,16, ,
-8, ,-8, ,16, ,
-8, ,-8, ,16, ,
-8, ,-8, ,16, ,
-7, ,-8, ,16, ,
-7, ,-8, ,16, ,
-7, ,-9, ,16, ,
-7, ,-9, ,16, ,
-7, ,-9, ,16, ,
-6, ,-9, ,16, ,
-6, ,-10, ,16, ,
-6, ,-10, ,16, ,
-6, ,-10, ,16, ,
-5, ,-10, ,18, ,
-5, ,-10, ,16, ,
-6, ,-10, ,18, ,
-6, ,-11, ,18, ,
-5, ,-11, ,18, ,
-5, ,-10, ,16, ,
-5, ,-10, ,16, ,
-5, ,-11, ,16, ,
-5, ,-10, ,16, ,
-4, ,-11, ,16, ,
-5, ,-11, ,16, ,
-4, ,-11, ,15, ,
-2, ,-11, ,15, ,
-4, ,-11, ,15, ,
-2, ,-11, ,15, ,
-2, ,-13, ,15, ,
-1, ,-13, ,15, ,
-1, ,-13, ,15, ,
-1, ,-13, ,15, ,
-1, ,-14, ,15, ,
-1, ,-14, ,16, ,
-1, ,-14, ,16, ,
-1, ,-14, ,16, ,
-1, ,-14, ,16, ,
-1, ,-14, ,15, ,
-1, ,-14, ,15, ,
-1, ,-13, ,15, ,
0, ,-14, ,15, ,
0, ,-14, ,15, ,
0, ,-14, ,14, ,
0, ,-14, ,14, ,
1, ,-14, ,14, ,
1, ,-14, ,14, ,
1, ,-14, ,14, ,
1, ,-14, ,14, ,
2, ,-14, ,13, ,
2, ,-15, ,14, ,
2, ,-15, ,13, ,
2, ,-15, ,14, ,
4, ,-15, ,13, ,
4, ,-15, ,14, ,
4, ,-16, ,14, ,
4, ,-16, ,14, ,
4, ,-15, ,14, ,
4, ,-15, ,13, ,
4, ,-15, ,13, ,
4, ,-15, ,13, ,
4, ,-15, ,13, ,
4, ,-15, ,13, ,
4, ,-15, ,13, ,
5, ,-15, ,11, ,
5, ,-15, ,11, ,
5, ,-15, ,11, ,
6, ,-15, ,11, ,
6, ,-15, ,10, ,
6, ,-15, ,10, ,
7, ,-16, ,10, ,
7, ,-16, ,10, ,
7, ,-16, ,10, ,
7, ,-16, ,10, ,
7, ,-16, ,10, ,
7, ,-16, ,10, ,
7, ,-16, ,10, ,
7, ,-16, ,10, ,
7, ,-16, ,10, ,
7, ,-16, ,9, ,
7, ,-16, ,10, ,
7, ,-16, ,9, ,
8, ,-15, ,9, ,
8, ,-15, ,9, ,
8, ,-15, ,8, ,
8, ,-15, ,8, ,
8, ,-15, ,8, ,
8, ,-15, ,8, ,
10, ,-15, ,6, ,
10, ,-15, ,6, ,
11, ,-16, ,6, ,
11, ,-16, ,6, ,
11, ,-16, ,6, ,
11, ,-16, ,6, ,
11, ,-16, ,8, ,
11, ,-16, ,6, ,
11, ,-16, ,6, ,
11, ,-16, ,6, ,
11, ,-16, ,6, ,
11, ,-15, ,6, ,
11, ,-15, ,5, ,
11, ,-15, ,5, ,
11, ,-15, ,5, ,
12, ,-15, ,5, ,
12, ,-15, ,4, ,
12, ,-15, ,4, ,
12, ,-15, ,4, ,
12, ,-14, ,4, ,
12, ,-15, ,4, ,
13, ,-15, ,3, ,
13, ,-15, ,3, ,
13, ,-15, ,3, ,
13, ,-15, ,3, ,
13, ,-15, ,3, ,
13, ,-15, ,3, ,
13, ,-15, ,3, ,
13, ,-15, ,3, ,
13, ,-15, ,3, ,
13, ,-14, ,3, ,
13, ,-14, ,3, ,
14, ,-14, ,1, ,
13, ,-14, ,1, ,
13, ,-14, ,1, ,
13, ,-14, ,1, ,
14, ,-13, ,0, ,
14, ,-13, ,0, ,
14, ,-13, ,0, ,
14, ,-13, ,0, ,
14, ,-13, ,-1, ,
16, ,-13, ,-1, ,
16, ,-13, ,-1, ,
16, ,-14, ,-1, ,
16, ,-13, ,-1, ,
16, ,-13, ,-1, ,
16, ,-13, ,-1, ,
16, ,-13, ,-3, ,
16, ,-13, ,-1, ,
16, ,-13, ,-1, ,
16, ,-13, ,-1, ,
16, ,-13, ,-3, ,
16, ,-11, ,-3, ,
16, ,-11, ,-3, ,
16, ,-11, ,-3, ,
16, ,-11, ,-3, ,
16, ,-10, ,-4, ,
16, ,-10, ,-4, ,
16, ,-10, ,-4, ,
16, ,-10, ,-4, ,
16, ,-10, ,-5, ,
16, ,-10, ,-5, ,
16, ,-10, ,-5, ,
17, ,-10, ,-5, ,
17, ,-10, ,-5, ,
17, ,-10, ,-5, ,
17, ,-10, ,-5, ,
17, ,-10, ,-5, ,
17, ,-10, ,-5, ,
16, ,-10, ,-5, ,
16, ,-9, ,-5, ,
17, ,-10, ,-6, ,
16, ,-9, ,-6, ,
16, ,-9, ,-6, ,
16, ,-9, ,-6, ,
16, ,-8, ,-6, ,
16, ,-8, ,-8, ,
16, ,-8, ,-8, ,
16, ,-8, ,-8, ,
16, ,-8, ,-8, ,
16, ,-8, ,-8, ,
17, ,-8, ,-9, ,
17, ,-6, ,-9, ,
17, ,-6, ,-9, ,
17, ,-8, ,-9, ,
17, ,-6, ,-9, ,
17, ,-6, ,-9, ,
17, ,-8, ,-9, ,
17, ,-6, ,-9, ,
17, ,-6, ,-9, ,
16, ,-6, ,-9, ,
16, ,-6, ,-9, ,
16, ,-6, ,-9, ,
16, ,-5, ,-9, ,
16, ,-5, ,-9, ,
16, ,-5, ,-10, ,
16, ,-5, ,-10, ,
16, ,-4, ,-10, ,
16, ,-4, ,-10, ,
16, ,-4, ,-10, ,
16, ,-4, ,-11, ,
16, ,-4, ,-11, ,
16, ,-4, ,-11, ,
16, ,-4, ,-11, ,
16, ,-3, ,-11, ,
16, ,-4, ,-11, ,
16, ,-4, ,-11, ,
16, ,-4, ,-11, ,
16, ,-3, ,-11, ,
16, ,-3, ,-11, ,
16, ,-3, ,-11, ,
14, ,-3, ,-11, ,
14, ,-1, ,-13, ,
14, ,-3, ,-11, ,
14, ,-1, ,-11, ,
14, ,-1, ,-13, ,
14, ,-1, ,-13, ,
14, ,0, ,-13, ,
14, ,0, ,-13, ,
14, ,0, ,-13, ,
14, ,0, ,-14, ,
14, ,0, ,-14, ,
14, ,0, ,-14, ,
14, ,0, ,-14, ,
14, ,0, ,-14, ,
14, ,0, ,-14, ,
14, ,0, ,-14, ,
14, ,1, ,-14, ,
14, ,1, ,-14, ,
13, ,1, ,-14, ,
13, ,1, ,-14, ,
13, ,1, ,-14, ,
13, ,3, ,-14, ,
13, ,1, ,-14, ,
13, ,3, ,-14, ,
13, ,3, ,-14, ,
12, ,3, ,-14, ,
12, ,3, ,-14, ,
12, ,4, ,-15, ,
12, ,4, ,-15, ,
12, ,4, ,-15, ,
12, ,4, ,-15, ,
12, ,4, ,-15, ,
