PublishedPapers/DDPG/Data/Run4_M3_Rotor_Current.csv

Format,1.0B,
Memory Length,10000,Memory Length,10000,Memory Length,10000,
IntpDistance,0,IntpDistance,0,IntpDistance,0,
Trigger Address,0,Trigger Address,0,Trigger Address,0,
Trigger Level,5.800E+00,Trigger Level,5.800E+00,Trigger Level,5.800E+00,
Source,CH1,Source,CH2,Source,CH3,
Vertical Units,V,Vertical Units,V,Vertical Units,V,
Vertical Units Div,0,Vertical Units Div,0,Vertical Units Div,0,
Vertical Units Extend Div,16,Vertical Units Extend Div,16,Vertical Units Extend Div,16,
Label,,Label,,Label,,
Probe Type,0,Probe Type,0,Probe Type,0,
Probe Ratio,1.000e+00,Probe Ratio,1.000e+00,Probe Ratio,1.000e+00,
Vertical Scale,5.000e+00,Vertical Scale,5.000e+00,Vertical Scale,5.000e+00,
Vertical Position,0.000e+00,Vertical Position,0.000e+00,Vertical Position,0.000e+00,
Horizontal Units,S,Horizontal Units,S,Horizontal Units,S,
Horizontal Scale,2.000E+00,Horizontal Scale,2.000E+00,Horizontal Scale,2.000E+00,
Horizontal Position,0.000E+00,Horizontal Position,0.000E+00,Horizontal Position,0.000E+00,
Horizontal Mode,Roll Mode,Horizontal Mode,Roll Mode,Horizontal Mode,Roll Mode,
Display Last Dot Address,10000,Display Last Dot Address,10000,Display Last Dot Address,10000,
Waveform Last Dot Address,0,Waveform Last Dot Address,0,Waveform Last Dot Address,0,
SincET Mode,Real Time,SincET Mode,Real Time,SincET Mode,Real Time,
Sampling Period,2.000e-03,Sampling Period,2.000e-03,Sampling Period,2.000e-03,
Horizontal Old Scale,2.000E+00,Horizontal Old Scale,2.000E+00,Horizontal Old Scale,2.000E+00,
Mode,Fast,Mode,Fast,Mode,Fast,
Firmware,V1.28,,Firmware,V1.28,,Firmware,V1.28,,
0, ,0, ,1, ,
0, ,0, ,1, ,
0, ,0, ,1, ,
0, ,0, ,1, ,
0, ,0, ,1, ,
0, ,0, ,1, ,
0, ,0, ,1, ,
0, ,0, ,1, ,
0, ,0, ,1, ,
0, ,0, ,1, ,
0, ,0, ,1, ,
0, ,0, ,1, ,
0, ,0, ,1, ,
0, ,0, ,1, ,
0, ,0, ,1, ,
0, ,0, ,1, ,
0, ,0, ,1, ,
0, ,0, ,1, ,
0, ,0, ,1, ,
0, ,0, ,1, ,
0, ,0, ,1, ,
0, ,0, ,1, ,
0, ,0, ,1, ,
0, ,0, ,1, ,
0, ,0, ,1, ,
0, ,0, ,1, ,
0, ,0, ,1, ,
0, ,0, ,1, ,
0, ,0, ,1, ,
0, ,0, ,1, ,
0, ,0, ,1, ,
0, ,0, ,1, ,
0, ,0, ,1, ,
0, ,0, ,1, ,
0, ,0, ,1, ,
0, ,0, ,1, ,
0, ,0, ,1, ,
0, ,0, ,1, ,
0, ,0, ,1, ,
0, ,0, ,1, ,
0, ,0, ,1, ,
0, ,0, ,1, ,
0, ,0, ,1, ,
0, ,0, ,1, ,
0, ,0, ,1, ,
0, ,0, ,1, ,
0, ,0, ,1, ,
0, ,0, ,1, ,
0, ,0, ,1, ,
0, ,0, ,1, ,
0, ,0, ,1, ,
0, ,0, ,1, ,
0, ,0, ,1, ,
0, ,0, ,1, ,
0, ,0, ,1, ,
0, ,0, ,1, ,
0, ,0, ,1, ,
0, ,0, ,1, ,
0, ,0, ,1, ,
0, ,0, ,1, ,
0, ,0, ,1, ,
0, ,0, ,1, ,
0, ,0, ,1, ,
0, ,0, ,1, ,
0, ,0, ,1, ,
0, ,0, ,1, ,
0, ,0, ,1, ,
0, ,0, ,1, ,
0, ,0, ,1, ,
0, ,0, ,1, ,
0, ,0, ,1, ,
0, ,0, ,1, ,
0, ,0, ,1, ,
0, ,0, ,1, ,
0, ,0, ,1, ,
0, ,0, ,1, ,
0, ,0, ,1, ,
0, ,0, ,1, ,
0, ,0, ,1, ,
0, ,0, ,1, ,
0, ,0, ,1, ,
0, ,0, ,1, ,
0, ,0, ,1, ,
0, ,0, ,1, ,
0, ,0, ,1, ,
0, ,0, ,1, ,
0, ,0, ,1, ,
0, ,0, ,1, ,
0, ,0, ,1, ,
0, ,0, ,1, ,
0, ,0, ,1, ,
0, ,0, ,1, ,
0, ,0, ,1, ,
0, ,0, ,1, ,
0, ,0, ,1, ,
0, ,0, ,1, ,
0, ,0, ,1, ,
0, ,0, ,1, ,
0, ,0, ,1, ,
0, ,0, ,1, ,
0, ,0, ,1, ,
0, ,0, ,1, ,
0, ,0, ,1, ,
0, ,0, ,1, ,
0, ,0, ,1, ,
0, ,0, ,1, ,
0, ,0, ,1, ,
0, ,0, ,1, ,
0, ,0, ,1, ,
0, ,0, ,1, ,
0, ,0, ,1, ,
0, ,0, ,1, ,
0, ,0, ,1, ,
0, ,0, ,1, ,
0, ,0, ,1, ,
0, ,0, ,1, ,
0, ,0, ,1, ,
0, ,0, ,1, ,
0, ,0, ,1, ,
0, ,0, ,1, ,
0, ,0, ,1, ,
0, ,0, ,1, ,
0, ,0, ,1, ,
0, ,0, ,1, ,
0, ,0, ,1, ,
0, ,0, ,1, ,
0, ,0, ,1, ,
0, ,0, ,1, ,
0, ,0, ,1, ,
0, ,0, ,1, ,
0, ,0, ,1, ,
0, ,0, ,1, ,
0, ,0, ,1, ,
0, ,0, ,1, ,
0, ,0, ,1, ,
0, ,0, ,1, ,
0, ,0, ,1, ,
0, ,0, ,1, ,
0, ,0, ,1, ,
0, ,0, ,1, ,
0, ,0, ,1, ,
0, ,0, ,1, ,
0, ,0, ,1, ,
0, ,0, ,1, ,
0, ,0, ,1, ,
0, ,0, ,1, ,
0, ,0, ,1, ,
0, ,0, ,1, ,
0, ,0, ,1, ,
0, ,0, ,1, ,
0, ,0, ,1, ,
0, ,0, ,1, ,
0, ,0, ,1, ,
0, ,0, ,1, ,
0, ,0, ,1, ,
0, ,0, ,1, ,
0, ,0, ,1, ,
0, ,0, ,1, ,
0, ,0, ,1, ,
0, ,0, ,1, ,
0, ,0, ,1, ,
0, ,0, ,1, ,
0, ,0, ,1, ,
0, ,0, ,1, ,
0, ,0, ,1, ,
0, ,0, ,1, ,
0, ,0, ,1, ,
0, ,0, ,1, ,
0, ,0, ,1, ,
0, ,0, ,1, ,
0, ,0, ,1, ,
0, ,0, ,1, ,
0, ,0, ,1, ,
0, ,0, ,1, ,
0, ,0, ,1, ,
0, ,0, ,1, ,
0, ,0, ,1, ,
0, ,0, ,1, ,
0, ,0, ,1, ,
0, ,0, ,1, ,
0, ,0, ,1, ,
0, ,0, ,1, ,
0, ,0, ,1, ,
0, ,0, ,1, ,
0, ,0, ,1, ,
0, ,0, ,1, ,
0, ,0, ,1, ,
0, ,0, ,1, ,
0, ,0, ,1, ,
0, ,0, ,1, ,
0, ,0, ,1, ,
0, ,0, ,1, ,
0, ,0, ,1, ,
0, ,0, ,1, ,
0, ,0, ,1, ,
0, ,0, ,1, ,
0, ,0, ,1, ,
0, ,0, ,1, ,
0, ,0, ,1, ,
0, ,0, ,1, ,
0, ,0, ,1, ,
0, ,0, ,1, ,
0, ,0, ,1, ,
0, ,0, ,1, ,
0, ,0, ,1, ,
0, ,0, ,1, ,
0, ,0, ,1, ,
0, ,0, ,1, ,
0, ,0, ,1, ,
0, ,0, ,1, ,
0, ,0, ,1, ,
0, ,0, ,1, ,
0, ,0, ,1, ,
0, ,0, ,1, ,
0, ,0, ,1, ,
0, ,0, ,1, ,
0, ,0, ,1, ,
0, ,0, ,1, ,
0, ,0, ,1, ,
0, ,0, ,1, ,
0, ,0, ,1, ,
0, ,0, ,1, ,
0, ,0, ,1, ,
0, ,0, ,1, ,
0, ,0, ,1, ,
0, ,0, ,1, ,
0, ,0, ,1, ,
0, ,0, ,1, ,
0, ,0, ,1, ,
0, ,0, ,1, ,
0, ,0, ,1, ,
0, ,0, ,1, ,
0, ,0, ,1, ,
0, ,0, ,1, ,
0, ,0, ,1, ,
0, ,0, ,1, ,
0, ,0, ,1, ,
0, ,0, ,1, ,
0, ,0, ,1, ,
0, ,0, ,1, ,
0, ,0, ,1, ,
0, ,0, ,1, ,
0, ,0, ,1, ,
0, ,0, ,1, ,
0, ,0, ,1, ,
0, ,0, ,1, ,
0, ,0, ,1, ,
0, ,0, ,1, ,
0, ,0, ,1, ,
0, ,0, ,1, ,
0, ,0, ,1, ,
0, ,0, ,1, ,
0, ,0, ,1, ,
0, ,0, ,1, ,
0, ,0, ,1, ,
0, ,0, ,1, ,
0, ,0, ,1, ,
0, ,0, ,1, ,
0, ,0, ,1, ,
0, ,0, ,1, ,
0, ,0, ,1, ,
0, ,0, ,1, ,
0, ,0, ,1, ,
0, ,0, ,1, ,
0, ,0, ,1, ,
0, ,0, ,1, ,
0, ,0, ,1, ,
0, ,0, ,1, ,
0, ,0, ,1, ,
0, ,0, ,1, ,
0, ,0, ,1, ,
0, ,0, ,1, ,
0, ,0, ,1, ,
0, ,0, ,1, ,
0, ,0, ,1, ,
0, ,0, ,1, ,
0, ,0, ,1, ,
0, ,0, ,1, ,
0, ,0, ,1, ,
0, ,0, ,1, ,
0, ,0, ,1, ,
0, ,0, ,1, ,
0, ,0, ,1, ,
0, ,0, ,1, ,
0, ,0, ,1, ,
0, ,0, ,1, ,
0, ,0, ,1, ,
0, ,0, ,1, ,
0, ,0, ,1, ,
0, ,0, ,1, ,
0, ,0, ,1, ,
0, ,0, ,1, ,
0, ,0, ,1, ,
0, ,0, ,1, ,
0, ,0, ,1, ,
0, ,0, ,1, ,
0, ,0, ,1, ,
0, ,0, ,1, ,
0, ,0, ,1, ,
0, ,0, ,1, ,
0, ,0, ,1, ,
0, ,0, ,1, ,
0, ,0, ,1, ,
0, ,0, ,1, ,
0, ,0, ,1, ,
0, ,0, ,1, ,
0, ,0, ,1, ,
0, ,0, ,1, ,
0, ,0, ,1, ,
0, ,0, ,1, ,
0, ,0, ,1, ,
0, ,0, ,1, ,
0, ,0, ,1, ,
0, ,0, ,1, ,
0, ,0, ,1, ,
0, ,0, ,1, ,
0, ,0, ,1, ,
0, ,0, ,1, ,
0, ,0, ,1, ,
0, ,0, ,1, ,
0, ,0, ,1, ,
0, ,0, ,1, ,
0, ,0, ,1, ,
0, ,0, ,1, ,
0, ,0, ,1, ,
0, ,0, ,1, ,
0, ,0, ,1, ,
0, ,0, ,1, ,
0, ,0, ,1, ,
0, ,0, ,1, ,
0, ,0, ,1, ,
0, ,0, ,1, ,
0, ,0, ,1, ,
0, ,0, ,1, ,
0, ,0, ,1, ,
0, ,0, ,1, ,
0, ,0, ,1, ,
0, ,0, ,1, ,
0, ,0, ,1, ,
0, ,0, ,1, ,
0, ,0, ,1, ,
0, ,0, ,1, ,
0, ,0, ,1, ,
0, ,0, ,1, ,
0, ,0, ,1, ,
0, ,0, ,1, ,
0, ,0, ,1, ,
0, ,0, ,1, ,
0, ,0, ,1, ,
0, ,0, ,1, ,
0, ,0, ,1, ,
0, ,0, ,1, ,
0, ,0, ,1, ,
0, ,0, ,1, ,
0, ,0, ,1, ,
0, ,0, ,1, ,
0, ,0, ,1, ,
0, ,0, ,1, ,
0, ,0, ,1, ,
0, ,0, ,1, ,
0, ,0, ,1, ,
0, ,0, ,1, ,
0, ,0, ,1, ,
0, ,0, ,1, ,
0, ,0, ,1, ,
0, ,0, ,1, ,
0, ,0, ,1, ,
0, ,0, ,1, ,
0, ,0, ,1, ,
0, ,0, ,1, ,
0, ,0, ,1, ,
0, ,0, ,1, ,
0, ,0, ,1, ,
0, ,0, ,1, ,
0, ,0, ,1, ,
0, ,0, ,1, ,
0, ,0, ,1, ,
0, ,0, ,1, ,
0, ,0, ,1, ,
0, ,0, ,1, ,
0, ,0, ,1, ,
0, ,0, ,1, ,
0, ,0, ,1, ,
0, ,0, ,1, ,
0, ,0, ,1, ,
0, ,0, ,1, ,
0, ,0, ,1, ,
0, ,0, ,1, ,
0, ,0, ,1, ,
0, ,0, ,1, ,
0, ,0, ,1, ,
0, ,0, ,1, ,
0, ,0, ,1, ,
0, ,0, ,1, ,
0, ,0, ,1, ,
0, ,0, ,1, ,
0, ,0, ,1, ,
0, ,0, ,1, ,
0, ,0, ,1, ,
0, ,0, ,1, ,
0, ,0, ,1, ,
0, ,0, ,1, ,
0, ,0, ,1, ,
0, ,0, ,1, ,
0, ,0, ,1, ,
0, ,0, ,1, ,
0, ,0, ,1, ,
0, ,0, ,1, ,
0, ,0, ,1, ,
0, ,0, ,1, ,
0, ,0, ,1, ,
0, ,0, ,1, ,
0, ,0, ,1, ,
0, ,0, ,1, ,
0, ,0, ,1, ,
0, ,0, ,1, ,
0, ,0, ,1, ,
0, ,0, ,1, ,
0, ,0, ,1, ,
0, ,0, ,1, ,
0, ,0, ,1, ,
0, ,0, ,1, ,
0, ,0, ,1, ,
0, ,0, ,1, ,
0, ,0, ,1, ,
0, ,0, ,1, ,
0, ,0, ,1, ,
0, ,0, ,1, ,
0, ,0, ,1, ,
0, ,0, ,1, ,
0, ,0, ,1, ,
0, ,0, ,1, ,
0, ,0, ,1, ,
0, ,0, ,1, ,
0, ,0, ,1, ,
0, ,0, ,1, ,
0, ,0, ,1, ,
0, ,0, ,1, ,
0, ,0, ,1, ,
0, ,0, ,1, ,
0, ,0, ,1, ,
0, ,0, ,1, ,
0, ,0, ,1, ,
0, ,0, ,1, ,
0, ,0, ,1, ,
0, ,0, ,1, ,
0, ,0, ,1, ,
0, ,0, ,1, ,
0, ,0, ,1, ,
0, ,0, ,1, ,
0, ,0, ,1, ,
0, ,0, ,1, ,
0, ,0, ,1, ,
0, ,0, ,1, ,
0, ,0, ,1, ,
0, ,0, ,1, ,
0, ,0, ,1, ,
0, ,0, ,1, ,
0, ,0, ,1, ,
0, ,0, ,1, ,
0, ,0, ,1, ,
0, ,0, ,1, ,
0, ,0, ,1, ,
0, ,0, ,1, ,
0, ,0, ,1, ,
0, ,0, ,1, ,
0, ,0, ,1, ,
0, ,0, ,1, ,
0, ,0, ,1, ,
0, ,0, ,1, ,
0, ,0, ,1, ,
0, ,0, ,1, ,
0, ,0, ,1, ,
0, ,0, ,1, ,
0, ,0, ,1, ,
0, ,0, ,1, ,
0, ,0, ,1, ,
0, ,0, ,1, ,
0, ,0, ,1, ,
0, ,0, ,1, ,
0, ,0, ,1, ,
0, ,0, ,1, ,
0, ,0, ,1, ,
0, ,0, ,1, ,
0, ,0, ,1, ,
0, ,0, ,1, ,
0, ,0, ,1, ,
0, ,0, ,1, ,
0, ,0, ,1, ,
0, ,0, ,1, ,
0, ,0, ,1, ,
0, ,0, ,1, ,
0, ,0, ,1, ,
0, ,0, ,1, ,
0, ,0, ,1, ,
0, ,0, ,1, ,
0, ,0, ,1, ,
0, ,0, ,1, ,
0, ,0, ,1, ,
0, ,0, ,1, ,
0, ,0, ,1, ,
0, ,0, ,1, ,
0, ,0, ,1, ,
0, ,0, ,1, ,
0, ,0, ,1, ,
0, ,0, ,1, ,
0, ,0, ,1, ,
0, ,0, ,1, ,
0, ,0, ,1, ,
0, ,0, ,1, ,
0, ,0, ,1, ,
0, ,0, ,1, ,
0, ,0, ,1, ,
0, ,0, ,1, ,
0, ,0, ,1, ,
0, ,0, ,1, ,
0, ,0, ,1, ,
0, ,0, ,1, ,
0, ,0, ,1, ,
0, ,0, ,1, ,
0, ,0, ,1, ,
0, ,0, ,1, ,
0, ,0, ,1, ,
0, ,0, ,1, ,
0, ,0, ,1, ,
0, ,0, ,1, ,
0, ,0, ,1, ,
0, ,0, ,1, ,
0, ,0, ,1, ,
0, ,0, ,1, ,
0, ,0, ,1, ,
0, ,0, ,1, ,
0, ,0, ,1, ,
0, ,0, ,1, ,
0, ,0, ,1, ,
0, ,0, ,1, ,
0, ,0, ,1, ,
0, ,0, ,1, ,
0, ,0, ,1, ,
0, ,0, ,1, ,
0, ,0, ,1, ,
0, ,0, ,1, ,
0, ,0, ,1, ,
0, ,0, ,1, ,
0, ,0, ,1, ,
0, ,0, ,1, ,
0, ,0, ,1, ,
0, ,0, ,1, ,
0, ,0, ,1, ,
0, ,0, ,1, ,
0, ,0, ,1, ,
0, ,0, ,1, ,
0, ,0, ,1, ,
0, ,0, ,1, ,
0, ,0, ,1, ,
0, ,0, ,1, ,
0, ,0, ,1, ,
0, ,0, ,1, ,
0, ,0, ,1, ,
0, ,0, ,1, ,
0, ,0, ,1, ,
0, ,0, ,1, ,
0, ,0, ,1, ,
0, ,0, ,1, ,
0, ,0, ,1, ,
0, ,0, ,1, ,
0, ,0, ,1, ,
0, ,0, ,1, ,
0, ,0, ,1, ,
0, ,0, ,1, ,
0, ,0, ,1, ,
0, ,0, ,1, ,
0, ,0, ,1, ,
0, ,0, ,1, ,
0, ,0, ,1, ,
0, ,0, ,1, ,
0, ,0, ,1, ,
0, ,0, ,1, ,
0, ,0, ,1, ,
0, ,0, ,1, ,
0, ,0, ,1, ,
0, ,0, ,1, ,
0, ,0, ,1, ,
0, ,0, ,1, ,
0, ,0, ,1, ,
0, ,0, ,1, ,
0, ,0, ,1, ,
0, ,0, ,1, ,
0, ,0, ,1, ,
0, ,0, ,1, ,
0, ,0, ,1, ,
0, ,0, ,1, ,
0, ,0, ,1, ,
0, ,0, ,1, ,
0, ,0, ,1, ,
0, ,0, ,1, ,
0, ,0, ,1, ,
0, ,0, ,1, ,
0, ,0, ,1, ,
0, ,0, ,1, ,
0, ,0, ,1, ,
0, ,0, ,1, ,
0, ,0, ,1, ,
0, ,0, ,1, ,
0, ,0, ,1, ,
0, ,0, ,1, ,
0, ,0, ,1, ,
0, ,0, ,1, ,
0, ,0, ,1, ,
0, ,0, ,1, ,
0, ,0, ,1, ,
0, ,0, ,1, ,
0, ,0, ,1, ,
0, ,0, ,1, ,
0, ,0, ,1, ,
0, ,0, ,1, ,
0, ,0, ,1, ,
0, ,0, ,1, ,
0, ,0, ,1, ,
0, ,0, ,1, ,
0, ,0, ,1, ,
0, ,0, ,1, ,
0, ,0, ,1, ,
0, ,0, ,1, ,
0, ,0, ,1, ,
0, ,0, ,1, ,
0, ,0, ,1, ,
0, ,0, ,1, ,
0, ,0, ,1, ,
0, ,0, ,1, ,
0, ,0, ,1, ,
0, ,0, ,1, ,
0, ,0, ,1, ,
0, ,0, ,1, ,
0, ,0, ,1, ,
0, ,0, ,1, ,
0, ,0, ,1, ,
0, ,0, ,1, ,
0, ,0, ,1, ,
0, ,0, ,1, ,
0, ,0, ,1, ,
0, ,0, ,1, ,
0, ,0, ,1, ,
0, ,0, ,1, ,
0, ,0, ,1, ,
0, ,0, ,1, ,
0, ,0, ,1, ,
0, ,0, ,1, ,
0, ,0, ,1, ,
0, ,0, ,1, ,
0, ,0, ,1, ,
0, ,0, ,1, ,
0, ,0, ,1, ,
0, ,0, ,1, ,
0, ,0, ,1, ,
0, ,0, ,1, ,
0, ,0, ,1, ,
0, ,0, ,1, ,
0, ,0, ,1, ,
0, ,0, ,1, ,
0, ,0, ,1, ,
0, ,0, ,1, ,
0, ,0, ,1, ,
0, ,0, ,1, ,
0, ,0, ,1, ,
0, ,0, ,1, ,
0, ,0, ,1, ,
0, ,0, ,1, ,
0, ,0, ,1, ,
0, ,0, ,1, ,
0, ,0, ,1, ,
0, ,0, ,1, ,
0, ,0, ,1, ,
0, ,0, ,1, ,
0, ,0, ,1, ,
0, ,0, ,1, ,
0, ,0, ,1, ,
0, ,0, ,1, ,
0, ,0, ,1, ,
0, ,0, ,1, ,
0, ,0, ,1, ,
0, ,0, ,1, ,
0, ,0, ,1, ,
0, ,0, ,1, ,
0, ,0, ,1, ,
0, ,0, ,1, ,
0, ,0, ,1, ,
0, ,0, ,1, ,
0, ,0, ,1, ,
0, ,0, ,1, ,
0, ,0, ,1, ,
0, ,0, ,1, ,
0, ,0, ,1, ,
0, ,0, ,1, ,
0, ,0, ,1, ,
0, ,0, ,1, ,
0, ,0, ,1, ,
0, ,0, ,1, ,
0, ,0, ,1, ,
0, ,0, ,1, ,
0, ,0, ,1, ,
0, ,0, ,1, ,
0, ,0, ,1, ,
0, ,0, ,1, ,
0, ,0, ,1, ,
0, ,0, ,1, ,
0, ,0, ,1, ,
0, ,0, ,1, ,
0, ,0, ,1, ,
0, ,0, ,1, ,
0, ,0, ,1, ,
0, ,0, ,1, ,
0, ,0, ,1, ,
0, ,0, ,1, ,
0, ,0, ,1, ,
0, ,0, ,1, ,
0, ,0, ,1, ,
0, ,0, ,1, ,
0, ,0, ,1, ,
0, ,0, ,1, ,
0, ,0, ,1, ,
0, ,0, ,1, ,
0, ,0, ,1, ,
0, ,0, ,1, ,
0, ,0, ,1, ,
0, ,0, ,1, ,
0, ,0, ,1, ,
0, ,0, ,1, ,
0, ,0, ,1, ,
0, ,0, ,1, ,
0, ,0, ,1, ,
0, ,0, ,1, ,
0, ,0, ,1, ,
0, ,0, ,1, ,
0, ,0, ,1, ,
0, ,0, ,1, ,
0, ,0, ,1, ,
0, ,0, ,1, ,
0, ,0, ,1, ,
0, ,0, ,1, ,
0, ,0, ,1, ,
0, ,0, ,1, ,
0, ,0, ,1, ,
0, ,0, ,1, ,
0, ,0, ,1, ,
0, ,0, ,1, ,
0, ,0, ,1, ,
0, ,0, ,1, ,
0, ,0, ,1, ,
0, ,0, ,1, ,
0, ,0, ,1, ,
0, ,0, ,1, ,
0, ,0, ,1, ,
0, ,0, ,1, ,
0, ,0, ,1, ,
0, ,0, ,1, ,
0, ,0, ,1, ,
0, ,0, ,0, ,
0, ,0, ,0, ,
0, ,0, ,0, ,
0, ,0, ,1, ,
0, ,0, ,1, ,
0, ,0, ,0, ,
0, ,0, ,0, ,
0, ,0, ,1, ,
0, ,0, ,1, ,
0, ,0, ,1, ,
0, ,0, ,0, ,
0, ,0, ,0, ,
0, ,0, ,1, ,
0, ,0, ,0, ,
0, ,0, ,0, ,
0, ,0, ,1, ,
0, ,0, ,1, ,
0, ,0, ,1, ,
0, ,0, ,1, ,
0, ,0, ,1, ,
2, ,20, ,-23, ,
25, ,45, ,-69, ,
52, ,28, ,-78, ,
62, ,-29, ,-32, ,
32, ,-34, ,3, ,
-5, ,-13, ,19, ,
6, ,-13, ,9, ,
6, ,-14, ,9, ,
7, ,-13, ,8, ,
5, ,-9, ,5, ,
6, ,-4, ,-1, ,
10, ,4, ,-13, ,
35, ,-8, ,-26, ,
43, ,-11, ,-30, ,
37, ,-16, ,-19, ,
17, ,-30, ,14, ,
-1, ,-21, ,23, ,
-5, ,-18, ,24, ,
-7, ,-29, ,38, ,
-24, ,-15, ,40, ,
-38, ,21, ,18, ,
-36, ,43, ,-5, ,
-16, ,40, ,-23, ,
23, ,19, ,-40, ,
41, ,-9, ,-32, ,
46, ,-30, ,-14, ,
46, ,-32, ,-14, ,
26, ,-33, ,8, ,
2, ,-30, ,28, ,
-22, ,-15, ,38, ,
-48, ,15, ,34, ,
-52, ,32, ,21, ,
-35, ,45, ,-10, ,
-6, ,49, ,-42, ,
7, ,37, ,-43, ,
32, ,5, ,-35, ,
31, ,-11, ,-20, ,
24, ,-25, ,1, ,
13, ,-32, ,19, ,
-14, ,-28, ,44, ,
-35, ,-21, ,57, ,
-40, ,-19, ,59, ,
-37, ,0, ,39, ,
-28, ,29, ,0, ,
-5, ,29, ,-24, ,
16, ,13, ,-26, ,
23, ,-4, ,-19, ,
28, ,-8, ,-19, ,
31, ,-16, ,-14, ,
22, ,-23, ,1, ,
-4, ,-16, ,21, ,
-13, ,-4, ,19, ,
-22, ,19, ,4, ,
-16, ,32, ,-15, ,
-4, ,26, ,-21, ,
-8, ,21, ,-13, ,
-4, ,8, ,-3, ,
-2, ,4, ,0, ,
1, ,-8, ,8, ,
5, ,-14, ,10, ,
1, ,-15, ,14, ,
-16, ,-1, ,19, ,
-31, ,20, ,11, ,
-18, ,18, ,1, ,
-4, ,13, ,-8, ,
-13, ,11, ,3, ,
-12, ,13, ,1, ,
-8, ,10, ,-3, ,
-1, ,3, ,-1, ,
0, ,-10, ,11, ,
-2, ,-9, ,13, ,
-20, ,5, ,16, ,
-26, ,18, ,10, ,
-16, ,15, ,1, ,
-11, ,5, ,6, ,
-16, ,9, ,8, ,
-14, ,8, ,8, ,
-10, ,6, ,5, ,
-2, ,-1, ,4, ,
0, ,-6, ,8, ,
-4, ,-6, ,11, ,
-20, ,0, ,21, ,
-23, ,10, ,14, ,
-11, ,5, ,6, ,
-14, ,3, ,13, ,
-14, ,3, ,13, ,
-12, ,0, ,13, ,
-10, ,-1, ,11, ,
-4, ,-1, ,6, ,
-4, ,-4, ,9, ,
-12, ,-10, ,24, ,
-18, ,-4, ,24, ,
-13, ,3, ,11, ,
-12, ,-1, ,15, ,
-11, ,-4, ,16, ,
-10, ,-4, ,15, ,
-8, ,-5, ,15, ,
-7, ,-5, ,13, ,
-1, ,-9, ,10, ,
-4, ,-8, ,11, ,
-13, ,-11, ,26, ,
-14, ,-6, ,21, ,
-8, ,-1, ,11, ,
-8, ,-8, ,18, ,
-7, ,-8, ,16, ,
-7, ,-8, ,16, ,
-6, ,-9, ,15, ,
-5, ,-8, ,13, ,
2, ,-14, ,13, ,
0, ,-14, ,14, ,
-8, ,-18, ,26, ,
-11, ,-9, ,20, ,
-5, ,-8, ,13, ,
-5, ,-10, ,16, ,
-5, ,-10, ,16, ,
-4, ,-11, ,15, ,
-2, ,-11, ,14, ,
-1, ,-9, ,11, ,
4, ,-14, ,11, ,
6, ,-21, ,18, ,
0, ,-19, ,20, ,
-10, ,-5, ,16, ,
-2, ,-14, ,16, ,
-2, ,-13, ,15, ,
-1, ,-13, ,15, ,
0, ,-13, ,14, ,
0, ,-13, ,14, ,
1, ,-10, ,10, ,
5, ,-15, ,11, ,
6, ,-23, ,18, ,
0, ,-16, ,19, ,
-5, ,-9, ,15, ,
1, ,-15, ,15, ,
1, ,-14, ,14, ,
1, ,-14, ,14, ,
2, ,-14, ,13, ,
4, ,-14, ,11, ,
4, ,-13, ,9, ,
6, ,-16, ,13, ,
6, ,-23, ,18, ,
0, ,-15, ,16, ,
1, ,-14, ,14, ,
4, ,-15, ,14, ,
4, ,-15, ,13, ,
4, ,-15, ,13, ,
5, ,-15, ,11, ,
6, ,-15, ,11, ,
6, ,-14, ,9, ,
8, ,-20, ,13, ,
5, ,-21, ,19, ,
1, ,-13, ,13, ,
5, ,-16, ,13, ,
5, ,-16, ,13, ,
5, ,-16, ,11, ,
6, ,-15, ,11, ,
6, ,-16, ,10, ,
7, ,-16, ,10, ,
7, ,-15, ,9, ,
10, ,-21, ,14, ,
4, ,-18, ,14, ,
6, ,-16, ,11, ,
6, ,-16, ,11, ,
6, ,-16, ,11, ,
7, ,-16, ,10, ,
6, ,-16, ,10, ,
7, ,-16, ,10, ,
8, ,-16, ,9, ,
8, ,-16, ,9, ,
8, ,-21, ,14, ,
7, ,-18, ,11, ,
7, ,-18, ,11, ,
7, ,-18, ,11, ,
7, ,-16, ,10, ,
7, ,-16, ,10, ,
7, ,-16, ,10, ,
8, ,-16, ,9, ,
10, ,-18, ,9, ,
10, ,-19, ,10, ,
8, ,-19, ,11, ,
8, ,-18, ,11, ,
8, ,-18, ,11, ,
7, ,-16, ,10, ,
7, ,-16, ,10, ,
8, ,-16, ,10, ,
8, ,-16, ,9, ,
10, ,-18, ,9, ,
10, ,-18, ,9, ,
10, ,-19, ,10, ,
8, ,-18, ,10, ,
8, ,-18, ,10, ,
8, ,-18, ,10, ,
8, ,-18, ,10, ,
8, ,-16, ,10, ,
8, ,-16, ,9, ,
8, ,-16, ,9, ,
10, ,-18, ,9, ,
10, ,-19, ,10, ,
10, ,-19, ,10, ,
8, ,-18, ,11, ,
8, ,-18, ,11, ,
8, ,-18, ,10, ,
8, ,-18, ,10, ,
8, ,-16, ,10, ,
8, ,-16, ,10, ,
8, ,-16, ,10, ,
10, ,-18, ,10, ,
10, ,-19, ,10, ,
8, ,-19, ,11, ,
7, ,-18, ,11, ,
8, ,-18, ,11, ,
7, ,-18, ,11, ,
7, ,-16, ,10, ,
7, ,-16, ,10, ,
7, ,-16, ,10, ,
8, ,-18, ,10, ,
10, ,-18, ,10, ,
8, ,-19, ,11, ,
7, ,-19, ,13, ,
7, ,-19, ,13, ,
7, ,-18, ,13, ,
6, ,-18, ,13, ,
6, ,-16, ,11, ,
6, ,-16, ,11, ,
7, ,-18, ,11, ,
7, ,-18, ,11, ,
7, ,-18, ,11, ,
7, ,-19, ,13, ,
6, ,-19, ,14, ,
6, ,-18, ,14, ,
5, ,-18, ,14, ,
5, ,-18, ,14, ,
5, ,-16, ,14, ,
5, ,-16, ,13, ,
6, ,-18, ,13, ,
6, ,-18, ,13, ,
6, ,-18, ,14, ,
5, ,-19, ,14, ,
5, ,-18, ,15, ,
4, ,-18, ,15, ,
4, ,-18, ,15, ,
4, ,-16, ,14, ,
4, ,-16, ,14, ,
2, ,-16, ,14, ,
4, ,-16, ,14, ,
4, ,-18, ,14, ,
4, ,-18, ,15, ,
2, ,-18, ,16, ,
2, ,-18, ,16, ,
1, ,-16, ,16, ,
1, ,-16, ,16, ,
1, ,-16, ,15, ,
1, ,-15, ,16, ,
0, ,-15, ,15, ,
1, ,-16, ,16, ,
1, ,-16, ,16, ,
1, ,-16, ,18, ,
0, ,-16, ,18, ,
-1, ,-16, ,18, ,
-1, ,-15, ,18, ,
-1, ,-15, ,16, ,
-1, ,-14, ,18, ,
-1, ,-14, ,18, ,
-1, ,-14, ,16, ,
-1, ,-15, ,18, ,
-1, ,-15, ,18, ,
-2, ,-15, ,19, ,
-4, ,-15, ,19, ,
-4, ,-14, ,19, ,
-5, ,-13, ,19, ,
-5, ,-13, ,19, ,
-5, ,-13, ,19, ,
-5, ,-13, ,19, ,
-5, ,-13, ,18, ,
-5, ,-13, ,19, ,
-5, ,-13, ,19, ,
-6, ,-13, ,20, ,
-7, ,-13, ,20, ,
-7, ,-11, ,20, ,
-7, ,-11, ,19, ,
-8, ,-10, ,19, ,
-7, ,-10, ,19, ,
-8, ,-10, ,19, ,
-7, ,-10, ,19, ,
-8, ,-10, ,19, ,
-8, ,-10, ,20, ,
-10, ,-10, ,20, ,
-11, ,-9, ,20, ,
-11, ,-9, ,20, ,
-11, ,-8, ,19, ,
-11, ,-8, ,19, ,
-11, ,-6, ,19, ,
-11, ,-6, ,19, ,
-11, ,-6, ,19, ,
-12, ,-6, ,19, ,
-13, ,-6, ,20, ,
-13, ,-6, ,20, ,
-14, ,-5, ,20, ,
-14, ,-4, ,19, ,
-14, ,-4, ,19, ,
-14, ,-4, ,19, ,
-14, ,-3, ,18, ,
-14, ,-4, ,19, ,
-14, ,-3, ,18, ,
-14, ,-3, ,19, ,
-16, ,-3, ,19, ,
-16, ,-1, ,19, ,
-17, ,0, ,18, ,
-17, ,0, ,18, ,
-17, ,1, ,16, ,
-17, ,1, ,16, ,
-17, ,1, ,16, ,
-17, ,1, ,16, ,
-17, ,1, ,16, ,
-18, ,3, ,16, ,
-18, ,3, ,16, ,
-18, ,4, ,15, ,
-19, ,5, ,15, ,
-18, ,5, ,15, ,
-18, ,5, ,14, ,
-18, ,6, ,14, ,
-18, ,6, ,13, ,
-18, ,6, ,13, ,
-19, ,6, ,14, ,
-19, ,8, ,14, ,
-19, ,8, ,13, ,
-19, ,9, ,11, ,
-19, ,10, ,11, ,
-19, ,10, ,10, ,
-19, ,10, ,10, ,
-18, ,10, ,9, ,
-18, ,10, ,9, ,
-19, ,11, ,9, ,
-19, ,11, ,9, ,
-19, ,13, ,8, ,
-19, ,13, ,8, ,
-19, ,14, ,6, ,
-18, ,14, ,5, ,
-18, ,14, ,5, ,
-18, ,14, ,5, ,
-18, ,14, ,4, ,
-18, ,14, ,4, ,
-18, ,15, ,4, ,
-18, ,15, ,4, ,
-18, ,16, ,3, ,
-18, ,16, ,1, ,
-17, ,18, ,1, ,
-17, ,18, ,0, ,
-16, ,18, ,-1, ,
-16, ,18, ,-1, ,
-16, ,18, ,-1, ,
-14, ,18, ,-1, ,
-16, ,18, ,-1, ,
-16, ,19, ,-3, ,
-14, ,19, ,-4, ,
-14, ,19, ,-4, ,
-13, ,19, ,-5, ,
-12, ,20, ,-6, ,
-12, ,19, ,-6, ,
-12, ,19, ,-6, ,
-11, ,19, ,-6, ,
-11, ,19, ,-8, ,
-11, ,20, ,-8, ,
-11, ,20, ,-9, ,
-10, ,20, ,-10, ,
-8, ,20, ,-10, ,
-8, ,20, ,-11, ,
-7, ,19, ,-11, ,
-6, ,19, ,-11, ,
-6, ,19, ,-11, ,
-6, ,19, ,-13, ,
-5, ,19, ,-13, ,
-5, ,19, ,-13, ,
-4, ,19, ,-14, ,
-2, ,19, ,-15, ,
-2, ,19, ,-15, ,
-1, ,18, ,-15, ,
0, ,18, ,-15, ,
0, ,16, ,-16, ,
0, ,16, ,-16, ,
1, ,16, ,-16, ,
1, ,16, ,-16, ,
1, ,16, ,-16, ,
2, ,16, ,-18, ,
4, ,15, ,-19, ,
5, ,15, ,-18, ,
6, ,14, ,-18, ,
6, ,14, ,-19, ,
6, ,13, ,-19, ,
7, ,13, ,-18, ,
7, ,11, ,-19, ,
8, ,11, ,-18, ,
8, ,11, ,-19, ,
10, ,10, ,-19, ,
11, ,10, ,-19, ,
12, ,9, ,-19, ,
12, ,8, ,-19, ,
12, ,8, ,-19, ,
12, ,6, ,-18, ,
13, ,6, ,-18, ,
13, ,5, ,-18, ,
14, ,5, ,-19, ,
14, ,5, ,-18, ,
16, ,4, ,-18, ,
17, ,3, ,-18, ,
17, ,1, ,-18, ,
17, ,1, ,-16, ,
17, ,0, ,-16, ,
18, ,0, ,-15, ,
18, ,-1, ,-15, ,
18, ,-1, ,-15, ,
18, ,-3, ,-15, ,
19, ,-3, ,-15, ,
19, ,-4, ,-14, ,
19, ,-5, ,-14, ,
19, ,-6, ,-13, ,
19, ,-6, ,-11, ,
19, ,-8, ,-11, ,
19, ,-8, ,-10, ,
19, ,-8, ,-10, ,
19, ,-9, ,-10, ,
20, ,-10, ,-9, ,
20, ,-10, ,-9, ,
20, ,-11, ,-8, ,
20, ,-13, ,-6, ,
19, ,-13, ,-6, ,
19, ,-14, ,-5, ,
19, ,-14, ,-4, ,
18, ,-14, ,-4, ,
18, ,-15, ,-3, ,
19, ,-15, ,-3, ,
18, ,-16, ,-1, ,
18, ,-16, ,-1, ,
18, ,-16, ,0, ,
17, ,-18, ,1, ,
17, ,-18, ,3, ,
16, ,-18, ,3, ,
16, ,-18, ,4, ,
14, ,-19, ,4, ,
14, ,-19, ,5, ,
14, ,-19, ,5, ,
14, ,-19, ,6, ,
13, ,-20, ,8, ,
12, ,-20, ,9, ,
12, ,-20, ,10, ,
11, ,-20, ,10, ,
10, ,-19, ,10, ,
10, ,-19, ,11, ,
8, ,-20, ,13, ,
8, ,-19, ,13, ,
7, ,-20, ,13, ,
7, ,-20, ,14, ,
6, ,-20, ,15, ,
5, ,-19, ,15, ,
4, ,-19, ,16, ,
2, ,-19, ,16, ,
2, ,-18, ,18, ,
1, ,-18, ,18, ,
1, ,-18, ,18, ,
0, ,-16, ,18, ,
-1, ,-16, ,19, ,
-2, ,-16, ,19, ,
-2, ,-16, ,20, ,
-4, ,-15, ,20, ,
-5, ,-14, ,20, ,
-6, ,-14, ,20, ,
-6, ,-13, ,20, ,
-7, ,-13, ,20, ,
-8, ,-11, ,20, ,
-8, ,-11, ,20, ,
-10, ,-10, ,21, ,
-11, ,-10, ,21, ,
-11, ,-9, ,21, ,
-12, ,-8, ,21, ,
-13, ,-8, ,21, ,
-13, ,-6, ,20, ,
-13, ,-5, ,20, ,
-14, ,-4, ,20, ,
-14, ,-4, ,20, ,
-16, ,-3, ,20, ,
-17, ,-3, ,19, ,
-17, ,-1, ,19, ,
-18, ,0, ,19, ,
-18, ,1, ,18, ,
-18, ,3, ,18, ,
-18, ,3, ,16, ,
-19, ,4, ,16, ,
-19, ,5, ,15, ,
-19, ,5, ,15, ,
-19, ,6, ,15, ,
-20, ,8, ,14, ,
-20, ,9, ,13, ,
-20, ,9, ,13, ,
-20, ,10, ,11, ,
-20, ,11, ,10, ,
-20, ,11, ,10, ,
-20, ,13, ,9, ,
-19, ,13, ,8, ,
-19, ,14, ,8, ,
-19, ,14, ,6, ,
-19, ,15, ,5, ,
-19, ,15, ,5, ,
-19, ,16, ,4, ,
-18, ,16, ,3, ,
-18, ,18, ,1, ,
-17, ,18, ,1, ,
-17, ,18, ,0, ,
-16, ,19, ,-1, ,
